[api-updater (non-obsolete-error-filter)] 29-12-2021 14:57:57 : Starting C:/PROGRA~1/Unity/Hub/Editor/2020.3.19f1/Editor/Data/Tools/ScriptUpdater/APIUpdater.NonObsoleteApiUpdaterDetector.exe
[api-updater (non-obsolete-error-filter)] 
----------------------------------
jit/startup time      : 562,512ms
moved types parse time: 43ms
candidates parse time : 1ms
C# parse time         : 177ms
candidates check time : 23ms
console write time    : 0ms

[api-updater (non-obsolete-error-filter)] 29-12-2021 14:57:57 : Starting C:/PROGRA~1/Unity/Hub/Editor/2020.3.19f1/Editor/Data/Tools/ScriptUpdater/APIUpdater.NonObsoleteApiUpdaterDetector.exe
[api-updater (non-obsolete-error-filter)] 
----------------------------------
jit/startup time      : 63,0583ms
moved types parse time: 41ms
candidates parse time : 1ms
C# parse time         : 146ms
candidates check time : 22ms
console write time    : 0ms

[api-updater (non-obsolete-error-filter)] 29-12-2021 15:01:41 : Starting C:/PROGRA~1/Unity/Hub/Editor/2020.3.19f1/Editor/Data/Tools/ScriptUpdater/APIUpdater.NonObsoleteApiUpdaterDetector.exe
[api-updater (non-obsolete-error-filter)] 
----------------------------------
jit/startup time      : 52,0489ms
moved types parse time: 39ms
candidates parse time : 1ms
C# parse time         : 141ms
candidates check time : 21ms
console write time    : 0ms

[api-updater (non-obsolete-error-filter)] 29-12-2021 15:01:41 : Starting C:/PROGRA~1/Unity/Hub/Editor/2020.3.19f1/Editor/Data/Tools/ScriptUpdater/APIUpdater.NonObsoleteApiUpdaterDetector.exe
[api-updater (non-obsolete-error-filter)] 
----------------------------------
jit/startup time      : 46,0427ms
moved types parse time: 41ms
candidates parse time : 1ms
C# parse time         : 137ms
candidates check time : 21ms
console write time    : 0ms

[api-updater (non-obsolete-error-filter)] 29-12-2021 15:10:49 : Starting C:/PROGRA~1/Unity/Hub/Editor/2020.3.19f1/Editor/Data/Tools/ScriptUpdater/APIUpdater.NonObsoleteApiUpdaterDetector.exe
[api-updater (non-obsolete-error-filter)] 
----------------------------------
jit/startup time      : 51,0469ms
moved types parse time: 42ms
candidates parse time : 1ms
C# parse time         : 145ms
candidates check time : 22ms
console write time    : 0ms

[api-updater (non-obsolete-error-filter)] 29-12-2021 15:10:49 : Starting C:/PROGRA~1/Unity/Hub/Editor/2020.3.19f1/Editor/Data/Tools/ScriptUpdater/APIUpdater.NonObsoleteApiUpdaterDetector.exe
[api-updater (non-obsolete-error-filter)] 
----------------------------------
jit/startup time      : 48,0442ms
moved types parse time: 39ms
candidates parse time : 1ms
C# parse time         : 142ms
candidates check time : 23ms
console write time    : 0ms

[api-updater (non-obsolete-error-filter)] 29-12-2021 15:14:18 : Starting C:/PROGRA~1/Unity/Hub/Editor/2020.3.19f1/Editor/Data/Tools/ScriptUpdater/APIUpdater.NonObsoleteApiUpdaterDetector.exe
[api-updater (non-obsolete-error-filter)] 
----------------------------------
jit/startup time      : 50,0461ms
moved types parse time: 40ms
candidates parse time : 1ms
C# parse time         : 135ms
candidates check time : 22ms
console write time    : 0ms

[api-updater (non-obsolete-error-filter)] 29-12-2021 15:14:19 : Starting C:/PROGRA~1/Unity/Hub/Editor/2020.3.19f1/Editor/Data/Tools/ScriptUpdater/APIUpdater.NonObsoleteApiUpdaterDetector.exe
[api-updater (non-obsolete-error-filter)] 
----------------------------------
jit/startup time      : 46,0408ms
moved types parse time: 38ms
candidates parse time : 1ms
C# parse time         : 132ms
candidates check time : 21ms
console write time    : 0ms

[api-updater (non-obsolete-error-filter)] 29-12-2021 15:20:11 : Starting C:/Program Files/Unity/Hub/Editor/2020.3.19f1/Editor/Data/Tools/ScriptUpdater/APIUpdater.NonObsoleteApiUpdaterDetector.exe
[api-updater (non-obsolete-error-filter)] Exception caught while loading types from C:\Users\Tom\Desktop\my-awesome-runner\Library\ScriptAssemblies\Unity.TextMeshPro.Editor.dll (some types may not be loaded)
	Exception of type 'System.Reflection.ReflectionTypeLoadException' was thrown.
	  at (wrapper managed-to-native) System.Reflection.Assembly.GetTypes(System.Reflection.Assembly,bool)
  at System.Reflection.Assembly.GetTypes () [0x00000] in <695d1cc93cca45069c528c15c9fdd749>:0 
  at APIUpdater.NonObsoleteApiUpdaterDetector.ExtraInfoParser+<LoadTypesWithMovedFromAttributeAsync>d__3.MoveNext () [0x000c8] in <68bff7873e0e4aa69a14dfc30bebbe3e>:0 
	Could not load file or assembly 'UnityEditor.CoreModule, Version=0.0.0.0, Culture=neutral, PublicKeyToken=null' or one of its dependencies.

[api-updater (non-obsolete-error-filter)] 
----------------------------------
jit/startup time      : 48,0437ms
moved types parse time: 38ms
candidates parse time : 1ms
C# parse time         : 155ms
candidates check time : 22ms
console write time    : 0ms

[api-updater (non-obsolete-error-filter)] 29-12-2021 15:31:30 : Starting C:/PROGRA~1/Unity/Hub/Editor/2020.3.19f1/Editor/Data/Tools/ScriptUpdater/APIUpdater.NonObsoleteApiUpdaterDetector.exe
[api-updater (non-obsolete-error-filter)] 
----------------------------------
jit/startup time      : 51,0465ms
moved types parse time: 38ms
candidates parse time : 1ms
C# parse time         : 143ms
candidates check time : 22ms
console write time    : 0ms

[api-updater (non-obsolete-error-filter)] 29-12-2021 15:31:30 : Starting C:/PROGRA~1/Unity/Hub/Editor/2020.3.19f1/Editor/Data/Tools/ScriptUpdater/APIUpdater.NonObsoleteApiUpdaterDetector.exe
[api-updater (non-obsolete-error-filter)] 
----------------------------------
jit/startup time      : 48,043ms
moved types parse time: 41ms
candidates parse time : 1ms
C# parse time         : 140ms
candidates check time : 22ms
console write time    : 0ms

[api-updater (non-obsolete-error-filter)] 6-1-2022 14:05:09 : Starting C:/Program Files/Unity/Hub/Editor/2020.3.19f1/Editor/Data/Tools/ScriptUpdater/APIUpdater.NonObsoleteApiUpdaterDetector.exe
[api-updater (non-obsolete-error-filter)] 
----------------------------------
jit/startup time      : 538,4884ms
moved types parse time: 38ms
candidates parse time : 1ms
C# parse time         : 149ms
candidates check time : 33ms
console write time    : 0ms

[api-updater (non-obsolete-error-filter)] 6-1-2022 14:33:21 : Starting C:/Program Files/Unity/Hub/Editor/2020.3.19f1/Editor/Data/Tools/ScriptUpdater/APIUpdater.NonObsoleteApiUpdaterDetector.exe
[api-updater (non-obsolete-error-filter)] 
----------------------------------
jit/startup time      : 77,0693ms
moved types parse time: 40ms
candidates parse time : 1ms
C# parse time         : 133ms
candidates check time : 32ms
console write time    : 0ms

[api-updater (non-obsolete-error-filter)] 6-1-2022 14:33:31 : Starting C:/Program Files/Unity/Hub/Editor/2020.3.19f1/Editor/Data/Tools/ScriptUpdater/APIUpdater.NonObsoleteApiUpdaterDetector.exe
[api-updater (non-obsolete-error-filter)] 
----------------------------------
jit/startup time      : 51,0463ms
moved types parse time: 39ms
candidates parse time : 1ms
C# parse time         : 130ms
candidates check time : 27ms
console write time    : 0ms

[api-updater (non-obsolete-error-filter)] 6-1-2022 15:14:22 : Starting C:/Program Files/Unity/Hub/Editor/2020.3.19f1/Editor/Data/Tools/ScriptUpdater/APIUpdater.NonObsoleteApiUpdaterDetector.exe
[api-updater (non-obsolete-error-filter)] 
----------------------------------
jit/startup time      : 53,0483ms
moved types parse time: 40ms
candidates parse time : 1ms
C# parse time         : 162ms
candidates check time : 35ms
console write time    : 0ms

[api-updater (non-obsolete-error-filter)] 6-1-2022 15:14:31 : Starting C:/Program Files/Unity/Hub/Editor/2020.3.19f1/Editor/Data/Tools/ScriptUpdater/APIUpdater.NonObsoleteApiUpdaterDetector.exe
[api-updater (non-obsolete-error-filter)] 
----------------------------------
jit/startup time      : 48,0429ms
moved types parse time: 38ms
candidates parse time : 1ms
C# parse time         : 147ms
candidates check time : 34ms
console write time    : 0ms

[api-updater (non-obsolete-error-filter)] 6-1-2022 15:14:39 : Starting C:/Program Files/Unity/Hub/Editor/2020.3.19f1/Editor/Data/Tools/ScriptUpdater/APIUpdater.NonObsoleteApiUpdaterDetector.exe
[api-updater (non-obsolete-error-filter)] 
----------------------------------
jit/startup time      : 49,0435ms
moved types parse time: 40ms
candidates parse time : 1ms
C# parse time         : 146ms
candidates check time : 35ms
console write time    : 0ms

[api-updater (non-obsolete-error-filter)] 6-1-2022 15:14:42 : Starting C:/Program Files/Unity/Hub/Editor/2020.3.19f1/Editor/Data/Tools/ScriptUpdater/APIUpdater.NonObsoleteApiUpdaterDetector.exe
[api-updater (non-obsolete-error-filter)] 
----------------------------------
jit/startup time      : 52,0464ms
moved types parse time: 38ms
candidates parse time : 1ms
C# parse time         : 144ms
candidates check time : 34ms
console write time    : 0ms

[api-updater (non-obsolete-error-filter)] 6-1-2022 15:14:49 : Starting C:/Program Files/Unity/Hub/Editor/2020.3.19f1/Editor/Data/Tools/ScriptUpdater/APIUpdater.NonObsoleteApiUpdaterDetector.exe
[api-updater (non-obsolete-error-filter)] 
----------------------------------
jit/startup time      : 47,0433ms
moved types parse time: 38ms
candidates parse time : 1ms
C# parse time         : 139ms
candidates check time : 32ms
console write time    : 0ms

[api-updater (non-obsolete-error-filter)] 6-1-2022 15:15:45 : Starting C:/Program Files/Unity/Hub/Editor/2020.3.19f1/Editor/Data/Tools/ScriptUpdater/APIUpdater.NonObsoleteApiUpdaterDetector.exe
[api-updater (non-obsolete-error-filter)] 
----------------------------------
jit/startup time      : 52,048ms
moved types parse time: 40ms
candidates parse time : 1ms
C# parse time         : 140ms
candidates check time : 30ms
console write time    : 0ms

[api-updater (non-obsolete-error-filter)] 6-1-2022 15:15:50 : Starting C:/Program Files/Unity/Hub/Editor/2020.3.19f1/Editor/Data/Tools/ScriptUpdater/APIUpdater.NonObsoleteApiUpdaterDetector.exe
[api-updater (non-obsolete-error-filter)] 
----------------------------------
jit/startup time      : 46,0416ms
moved types parse time: 39ms
candidates parse time : 1ms
C# parse time         : 133ms
candidates check time : 29ms
console write time    : 0ms

[api-updater (non-obsolete-error-filter)] 6-1-2022 15:15:56 : Starting C:/Program Files/Unity/Hub/Editor/2020.3.19f1/Editor/Data/Tools/ScriptUpdater/APIUpdater.NonObsoleteApiUpdaterDetector.exe
[api-updater (non-obsolete-error-filter)] 
----------------------------------
jit/startup time      : 48,0438ms
moved types parse time: 41ms
candidates parse time : 1ms
C# parse time         : 136ms
candidates check time : 30ms
console write time    : 0ms

[api-updater (non-obsolete-error-filter)] 6-1-2022 15:15:58 : Starting C:/Program Files/Unity/Hub/Editor/2020.3.19f1/Editor/Data/Tools/ScriptUpdater/APIUpdater.NonObsoleteApiUpdaterDetector.exe
[api-updater (non-obsolete-error-filter)] 
----------------------------------
jit/startup time      : 49,0439ms
moved types parse time: 39ms
candidates parse time : 1ms
C# parse time         : 136ms
candidates check time : 30ms
console write time    : 0ms

[api-updater (non-obsolete-error-filter)] 6-1-2022 15:16:05 : Starting C:/Program Files/Unity/Hub/Editor/2020.3.19f1/Editor/Data/Tools/ScriptUpdater/APIUpdater.NonObsoleteApiUpdaterDetector.exe
[api-updater (non-obsolete-error-filter)] 
----------------------------------
jit/startup time      : 48,0432ms
moved types parse time: 39ms
candidates parse time : 0ms
C# parse time         : 131ms
candidates check time : 29ms
console write time    : 0ms

[api-updater (non-obsolete-error-filter)] 6-1-2022 15:17:44 : Starting C:/Program Files/Unity/Hub/Editor/2020.3.19f1/Editor/Data/Tools/ScriptUpdater/APIUpdater.NonObsoleteApiUpdaterDetector.exe
[api-updater (non-obsolete-error-filter)] 
----------------------------------
jit/startup time      : 55,0504ms
moved types parse time: 39ms
candidates parse time : 1ms
C# parse time         : 143ms
candidates check time : 28ms
console write time    : 0ms

[api-updater (non-obsolete-error-filter)] 6-1-2022 15:17:51 : Starting C:/Program Files/Unity/Hub/Editor/2020.3.19f1/Editor/Data/Tools/ScriptUpdater/APIUpdater.NonObsoleteApiUpdaterDetector.exe
[api-updater (non-obsolete-error-filter)] 
----------------------------------
jit/startup time      : 49,0447ms
moved types parse time: 39ms
candidates parse time : 1ms
C# parse time         : 131ms
candidates check time : 29ms
console write time    : 0ms

[api-updater (non-obsolete-error-filter)] 6-1-2022 15:39:14 : Starting C:/Program Files/Unity/Hub/Editor/2020.3.19f1/Editor/Data/Tools/ScriptUpdater/APIUpdater.NonObsoleteApiUpdaterDetector.exe
[api-updater (non-obsolete-error-filter)] 
----------------------------------
jit/startup time      : 51,0468ms
moved types parse time: 38ms
candidates parse time : 1ms
C# parse time         : 155ms
candidates check time : 31ms
console write time    : 0ms

[api-updater (non-obsolete-error-filter)] 6-1-2022 15:46:33 : Starting C:/Program Files/Unity/Hub/Editor/2020.3.19f1/Editor/Data/Tools/ScriptUpdater/APIUpdater.NonObsoleteApiUpdaterDetector.exe
[api-updater (non-obsolete-error-filter)] 
----------------------------------
jit/startup time      : 49,0446ms
moved types parse time: 39ms
candidates parse time : 1ms
C# parse time         : 177ms
candidates check time : 36ms
console write time    : 0ms

[api-updater (non-obsolete-error-filter)] 6-1-2022 15:47:02 : Starting C:/Program Files/Unity/Hub/Editor/2020.3.19f1/Editor/Data/Tools/ScriptUpdater/APIUpdater.NonObsoleteApiUpdaterDetector.exe
[api-updater (non-obsolete-error-filter)] 
----------------------------------
jit/startup time      : 48,0427ms
moved types parse time: 38ms
candidates parse time : 1ms
C# parse time         : 150ms
candidates check time : 34ms
console write time    : 0ms

[api-updater (non-obsolete-error-filter)] 6-1-2022 15:47:22 : Starting C:/Program Files/Unity/Hub/Editor/2020.3.19f1/Editor/Data/Tools/ScriptUpdater/APIUpdater.NonObsoleteApiUpdaterDetector.exe
[api-updater (non-obsolete-error-filter)] 
----------------------------------
jit/startup time      : 47,0428ms
moved types parse time: 38ms
candidates parse time : 1ms
C# parse time         : 154ms
candidates check time : 35ms
console write time    : 0ms

[api-updater (non-obsolete-error-filter)] 6-1-2022 15:47:48 : Starting C:/Program Files/Unity/Hub/Editor/2020.3.19f1/Editor/Data/Tools/ScriptUpdater/APIUpdater.NonObsoleteApiUpdaterDetector.exe
[api-updater (non-obsolete-error-filter)] 
----------------------------------
jit/startup time      : 47,043ms
moved types parse time: 39ms
candidates parse time : 1ms
C# parse time         : 154ms
candidates check time : 35ms
console write time    : 0ms

[api-updater (non-obsolete-error-filter)] 6-1-2022 15:47:54 : Starting C:/Program Files/Unity/Hub/Editor/2020.3.19f1/Editor/Data/Tools/ScriptUpdater/APIUpdater.NonObsoleteApiUpdaterDetector.exe
[api-updater (non-obsolete-error-filter)] 
----------------------------------
jit/startup time      : 47,0436ms
moved types parse time: 38ms
candidates parse time : 1ms
C# parse time         : 152ms
candidates check time : 35ms
console write time    : 0ms

[api-updater (non-obsolete-error-filter)] 6-1-2022 15:48:31 : Starting C:/Program Files/Unity/Hub/Editor/2020.3.19f1/Editor/Data/Tools/ScriptUpdater/APIUpdater.NonObsoleteApiUpdaterDetector.exe
[api-updater (non-obsolete-error-filter)] 
----------------------------------
jit/startup time      : 47,0448ms
moved types parse time: 38ms
candidates parse time : 1ms
C# parse time         : 152ms
candidates check time : 32ms
console write time    : 0ms

[api-updater (non-obsolete-error-filter)] 6-1-2022 16:58:23 : Starting C:/Program Files/Unity/Hub/Editor/2020.3.19f1/Editor/Data/Tools/ScriptUpdater/APIUpdater.NonObsoleteApiUpdaterDetector.exe
[api-updater (non-obsolete-error-filter)] 
----------------------------------
jit/startup time      : 53,0509ms
moved types parse time: 38ms
candidates parse time : 1ms
C# parse time         : 153ms
candidates check time : 31ms
console write time    : 0ms

[api-updater (non-obsolete-error-filter)] 6-1-2022 18:08:43 : Starting C:/Program Files/Unity/Hub/Editor/2020.3.19f1/Editor/Data/Tools/ScriptUpdater/APIUpdater.NonObsoleteApiUpdaterDetector.exe
[api-updater (non-obsolete-error-filter)] 
----------------------------------
jit/startup time      : 101,0921ms
moved types parse time: 38ms
candidates parse time : 1ms
C# parse time         : 150ms
candidates check time : 32ms
console write time    : 0ms

[api-updater (non-obsolete-error-filter)] 7-1-2022 15:12:08 : Starting C:/Program Files/Unity/Hub/Editor/2020.3.19f1/Editor/Data/Tools/ScriptUpdater/APIUpdater.NonObsoleteApiUpdaterDetector.exe
[api-updater (non-obsolete-error-filter)] 
----------------------------------
jit/startup time      : 212,2025ms
moved types parse time: 42ms
candidates parse time : 1ms
C# parse time         : 177ms
candidates check time : 33ms
console write time    : 0ms

[api-updater (non-obsolete-error-filter)] 8-1-2022 15:38:44 : Starting C:/Program Files/Unity/Hub/Editor/2020.3.19f1/Editor/Data/Tools/ScriptUpdater/APIUpdater.NonObsoleteApiUpdaterDetector.exe
[api-updater (non-obsolete-error-filter)] 
----------------------------------
jit/startup time      : 164,1491ms
moved types parse time: 43ms
candidates parse time : 1ms
C# parse time         : 178ms
candidates check time : 35ms
console write time    : 0ms

[api-updater (non-obsolete-error-filter)] 8-1-2022 16:10:27 : Starting C:/Program Files/Unity/Hub/Editor/2020.3.19f1/Editor/Data/Tools/ScriptUpdater/APIUpdater.NonObsoleteApiUpdaterDetector.exe
[api-updater (non-obsolete-error-filter)] 
----------------------------------
jit/startup time      : 64,0571ms
moved types parse time: 38ms
candidates parse time : 1ms
C# parse time         : 141ms
candidates check time : 32ms
console write time    : 0ms

[api-updater (non-obsolete-error-filter)] 8-1-2022 16:10:44 : Starting C:/Program Files/Unity/Hub/Editor/2020.3.19f1/Editor/Data/Tools/ScriptUpdater/APIUpdater.NonObsoleteApiUpdaterDetector.exe
[api-updater (non-obsolete-error-filter)] 
----------------------------------
jit/startup time      : 52,0467ms
moved types parse time: 38ms
candidates parse time : 1ms
C# parse time         : 138ms
candidates check time : 32ms
console write time    : 0ms

[api-updater (non-obsolete-error-filter)] 8-1-2022 16:40:19 : Starting C:/Program Files/Unity/Hub/Editor/2020.3.19f1/Editor/Data/Tools/ScriptUpdater/APIUpdater.NonObsoleteApiUpdaterDetector.exe
[api-updater (non-obsolete-error-filter)] 
----------------------------------
jit/startup time      : 55,0494ms
moved types parse time: 39ms
candidates parse time : 1ms
C# parse time         : 159ms
candidates check time : 28ms
console write time    : 0ms

[api-updater (non-obsolete-error-filter)] 8-1-2022 16:45:10 : Starting C:/Program Files/Unity/Hub/Editor/2020.3.19f1/Editor/Data/Tools/ScriptUpdater/APIUpdater.NonObsoleteApiUpdaterDetector.exe
[api-updater (non-obsolete-error-filter)] 
----------------------------------
jit/startup time      : 49,0458ms
moved types parse time: 40ms
candidates parse time : 1ms
C# parse time         : 159ms
candidates check time : 32ms
console write time    : 0ms

[api-updater (non-obsolete-error-filter)] 8-1-2022 16:49:53 : Starting C:/Program Files/Unity/Hub/Editor/2020.3.19f1/Editor/Data/Tools/ScriptUpdater/APIUpdater.NonObsoleteApiUpdaterDetector.exe
[api-updater (non-obsolete-error-filter)] 
----------------------------------
jit/startup time      : 49,0439ms
moved types parse time: 39ms
candidates parse time : 1ms
C# parse time         : 162ms
candidates check time : 31ms
console write time    : 0ms

[api-updater (non-obsolete-error-filter)] 8-1-2022 17:05:09 : Starting C:/Program Files/Unity/Hub/Editor/2020.3.19f1/Editor/Data/Tools/ScriptUpdater/APIUpdater.NonObsoleteApiUpdaterDetector.exe
[api-updater (non-obsolete-error-filter)] 
----------------------------------
jit/startup time      : 50,0454ms
moved types parse time: 44ms
candidates parse time : 1ms
C# parse time         : 161ms
candidates check time : 33ms
console write time    : 0ms

[api-updater (non-obsolete-error-filter)] 8-1-2022 17:05:33 : Starting C:/Program Files/Unity/Hub/Editor/2020.3.19f1/Editor/Data/Tools/ScriptUpdater/APIUpdater.NonObsoleteApiUpdaterDetector.exe
[api-updater (non-obsolete-error-filter)] 
----------------------------------
jit/startup time      : 48,5478ms
moved types parse time: 39ms
candidates parse time : 1ms
C# parse time         : 159ms
candidates check time : 33ms
console write time    : 0ms

[api-updater (non-obsolete-error-filter)] 8-1-2022 17:06:03 : Starting C:/Program Files/Unity/Hub/Editor/2020.3.19f1/Editor/Data/Tools/ScriptUpdater/APIUpdater.NonObsoleteApiUpdaterDetector.exe
[api-updater (non-obsolete-error-filter)] 
----------------------------------
jit/startup time      : 56,0515ms
moved types parse time: 41ms
candidates parse time : 1ms
C# parse time         : 155ms
candidates check time : 37ms
console write time    : 0ms

[api-updater (non-obsolete-error-filter)] 8-1-2022 17:06:53 : Starting C:/Program Files/Unity/Hub/Editor/2020.3.19f1/Editor/Data/Tools/ScriptUpdater/APIUpdater.NonObsoleteApiUpdaterDetector.exe
[api-updater (non-obsolete-error-filter)] 
----------------------------------
jit/startup time      : 51,0467ms
moved types parse time: 42ms
candidates parse time : 1ms
C# parse time         : 156ms
candidates check time : 34ms
console write time    : 0ms

[api-updater (non-obsolete-error-filter)] 8-1-2022 17:07:05 : Starting C:/Program Files/Unity/Hub/Editor/2020.3.19f1/Editor/Data/Tools/ScriptUpdater/APIUpdater.NonObsoleteApiUpdaterDetector.exe
[api-updater (non-obsolete-error-filter)] 
----------------------------------
jit/startup time      : 51,0464ms
moved types parse time: 39ms
candidates parse time : 1ms
C# parse time         : 152ms
candidates check time : 26ms
console write time    : 0ms

[api-updater (non-obsolete-error-filter)] 8-1-2022 17:07:35 : Starting C:/Program Files/Unity/Hub/Editor/2020.3.19f1/Editor/Data/Tools/ScriptUpdater/APIUpdater.NonObsoleteApiUpdaterDetector.exe
[api-updater (non-obsolete-error-filter)] 
----------------------------------
jit/startup time      : 55,049ms
moved types parse time: 43ms
candidates parse time : 1ms
C# parse time         : 156ms
candidates check time : 34ms
console write time    : 0ms

[api-updater (non-obsolete-error-filter)] 8-1-2022 17:07:57 : Starting C:/Program Files/Unity/Hub/Editor/2020.3.19f1/Editor/Data/Tools/ScriptUpdater/APIUpdater.NonObsoleteApiUpdaterDetector.exe
[api-updater (non-obsolete-error-filter)] 
----------------------------------
jit/startup time      : 48,0435ms
moved types parse time: 41ms
candidates parse time : 1ms
C# parse time         : 143ms
candidates check time : 30ms
console write time    : 0ms

[api-updater (non-obsolete-error-filter)] 8-1-2022 17:08:28 : Starting C:/Program Files/Unity/Hub/Editor/2020.3.19f1/Editor/Data/Tools/ScriptUpdater/APIUpdater.NonObsoleteApiUpdaterDetector.exe
[api-updater (non-obsolete-error-filter)] 
----------------------------------
jit/startup time      : 48,0437ms
moved types parse time: 39ms
candidates parse time : 1ms
C# parse time         : 142ms
candidates check time : 29ms
console write time    : 0ms

[api-updater (non-obsolete-error-filter)] 8-1-2022 17:09:04 : Starting C:/Program Files/Unity/Hub/Editor/2020.3.19f1/Editor/Data/Tools/ScriptUpdater/APIUpdater.NonObsoleteApiUpdaterDetector.exe
[api-updater (non-obsolete-error-filter)] 
----------------------------------
jit/startup time      : 48,0454ms
moved types parse time: 39ms
candidates parse time : 1ms
C# parse time         : 130ms
candidates check time : 26ms
console write time    : 0ms

[api-updater (non-obsolete-error-filter)] 8-1-2022 17:09:06 : Starting C:/Program Files/Unity/Hub/Editor/2020.3.19f1/Editor/Data/Tools/ScriptUpdater/APIUpdater.NonObsoleteApiUpdaterDetector.exe
[api-updater (non-obsolete-error-filter)] 
----------------------------------
jit/startup time      : 47,0428ms
moved types parse time: 39ms
candidates parse time : 1ms
C# parse time         : 140ms
candidates check time : 26ms
console write time    : 0ms

[api-updater (non-obsolete-error-filter)] 8-1-2022 17:09:49 : Starting C:/Program Files/Unity/Hub/Editor/2020.3.19f1/Editor/Data/Tools/ScriptUpdater/APIUpdater.NonObsoleteApiUpdaterDetector.exe
[api-updater (non-obsolete-error-filter)] 
----------------------------------
jit/startup time      : 48,0438ms
moved types parse time: 39ms
candidates parse time : 1ms
C# parse time         : 141ms
candidates check time : 27ms
console write time    : 0ms

[api-updater (non-obsolete-error-filter)] 8-1-2022 17:10:27 : Starting C:/Program Files/Unity/Hub/Editor/2020.3.19f1/Editor/Data/Tools/ScriptUpdater/APIUpdater.NonObsoleteApiUpdaterDetector.exe
[api-updater (non-obsolete-error-filter)] 
----------------------------------
jit/startup time      : 50,0455ms
moved types parse time: 41ms
candidates parse time : 1ms
C# parse time         : 149ms
candidates check time : 30ms
console write time    : 0ms

[api-updater (non-obsolete-error-filter)] 8-1-2022 17:10:37 : Starting C:/Program Files/Unity/Hub/Editor/2020.3.19f1/Editor/Data/Tools/ScriptUpdater/APIUpdater.NonObsoleteApiUpdaterDetector.exe
[api-updater (non-obsolete-error-filter)] 
----------------------------------
jit/startup time      : 48,5472ms
moved types parse time: 39ms
candidates parse time : 1ms
C# parse time         : 135ms
candidates check time : 26ms
console write time    : 0ms

[api-updater (non-obsolete-error-filter)] 8-1-2022 17:13:10 : Starting C:/Program Files/Unity/Hub/Editor/2020.3.19f1/Editor/Data/Tools/ScriptUpdater/APIUpdater.NonObsoleteApiUpdaterDetector.exe
[api-updater (non-obsolete-error-filter)] 
----------------------------------
jit/startup time      : 48,0435ms
moved types parse time: 39ms
candidates parse time : 1ms
C# parse time         : 137ms
candidates check time : 27ms
console write time    : 0ms

[api-updater (non-obsolete-error-filter)] 8-1-2022 17:13:37 : Starting C:/Program Files/Unity/Hub/Editor/2020.3.19f1/Editor/Data/Tools/ScriptUpdater/APIUpdater.NonObsoleteApiUpdaterDetector.exe
[api-updater (non-obsolete-error-filter)] 
----------------------------------
jit/startup time      : 60,838ms
moved types parse time: 52ms
candidates parse time : 1ms
C# parse time         : 148ms
candidates check time : 31ms
console write time    : 0ms

[api-updater (non-obsolete-error-filter)] 8-1-2022 17:13:55 : Starting C:/Program Files/Unity/Hub/Editor/2020.3.19f1/Editor/Data/Tools/ScriptUpdater/APIUpdater.NonObsoleteApiUpdaterDetector.exe
[api-updater (non-obsolete-error-filter)] 
----------------------------------
jit/startup time      : 48,0435ms
moved types parse time: 39ms
candidates parse time : 1ms
C# parse time         : 138ms
candidates check time : 29ms
console write time    : 0ms

[api-updater (non-obsolete-error-filter)] 8-1-2022 17:14:12 : Starting C:/Program Files/Unity/Hub/Editor/2020.3.19f1/Editor/Data/Tools/ScriptUpdater/APIUpdater.NonObsoleteApiUpdaterDetector.exe
[api-updater (non-obsolete-error-filter)] 
----------------------------------
jit/startup time      : 50,0458ms
moved types parse time: 39ms
candidates parse time : 1ms
C# parse time         : 145ms
candidates check time : 23ms
console write time    : 0ms

[api-updater (non-obsolete-error-filter)] 8-1-2022 17:14:36 : Starting C:/Program Files/Unity/Hub/Editor/2020.3.19f1/Editor/Data/Tools/ScriptUpdater/APIUpdater.NonObsoleteApiUpdaterDetector.exe
[api-updater (non-obsolete-error-filter)] 
----------------------------------
jit/startup time      : 48,0437ms
moved types parse time: 42ms
candidates parse time : 1ms
C# parse time         : 147ms
candidates check time : 24ms
console write time    : 0ms

[api-updater (non-obsolete-error-filter)] 8-1-2022 17:14:45 : Starting C:/Program Files/Unity/Hub/Editor/2020.3.19f1/Editor/Data/Tools/ScriptUpdater/APIUpdater.NonObsoleteApiUpdaterDetector.exe
[api-updater (non-obsolete-error-filter)] 
----------------------------------
jit/startup time      : 48,0441ms
moved types parse time: 39ms
candidates parse time : 1ms
C# parse time         : 142ms
candidates check time : 22ms
console write time    : 0ms

[api-updater (non-obsolete-error-filter)] 8-1-2022 17:15:04 : Starting C:/Program Files/Unity/Hub/Editor/2020.3.19f1/Editor/Data/Tools/ScriptUpdater/APIUpdater.NonObsoleteApiUpdaterDetector.exe
[api-updater (non-obsolete-error-filter)] 
----------------------------------
jit/startup time      : 53,0464ms
moved types parse time: 39ms
candidates parse time : 1ms
C# parse time         : 140ms
candidates check time : 24ms
console write time    : 0ms

[api-updater (non-obsolete-error-filter)] 8-1-2022 17:15:17 : Starting C:/Program Files/Unity/Hub/Editor/2020.3.19f1/Editor/Data/Tools/ScriptUpdater/APIUpdater.NonObsoleteApiUpdaterDetector.exe
[api-updater (non-obsolete-error-filter)] 
----------------------------------
jit/startup time      : 47,0427ms
moved types parse time: 38ms
candidates parse time : 1ms
C# parse time         : 138ms
candidates check time : 36ms
console write time    : 0ms

[api-updater (non-obsolete-error-filter)] 8-1-2022 17:15:42 : Starting C:/Program Files/Unity/Hub/Editor/2020.3.19f1/Editor/Data/Tools/ScriptUpdater/APIUpdater.NonObsoleteApiUpdaterDetector.exe
[api-updater (non-obsolete-error-filter)] 
----------------------------------
jit/startup time      : 49,045ms
moved types parse time: 39ms
candidates parse time : 1ms
C# parse time         : 137ms
candidates check time : 35ms
console write time    : 0ms

[api-updater (non-obsolete-error-filter)] 8-1-2022 17:16:03 : Starting C:/Program Files/Unity/Hub/Editor/2020.3.19f1/Editor/Data/Tools/ScriptUpdater/APIUpdater.NonObsoleteApiUpdaterDetector.exe
[api-updater (non-obsolete-error-filter)] 
----------------------------------
jit/startup time      : 47,0429ms
moved types parse time: 39ms
candidates parse time : 1ms
C# parse time         : 140ms
candidates check time : 31ms
console write time    : 0ms

[api-updater (non-obsolete-error-filter)] 8-1-2022 17:16:25 : Starting C:/Program Files/Unity/Hub/Editor/2020.3.19f1/Editor/Data/Tools/ScriptUpdater/APIUpdater.NonObsoleteApiUpdaterDetector.exe
[api-updater (non-obsolete-error-filter)] 
----------------------------------
jit/startup time      : 48,0415ms
moved types parse time: 39ms
candidates parse time : 1ms
C# parse time         : 135ms
candidates check time : 31ms
console write time    : 0ms

[api-updater (non-obsolete-error-filter)] 8-1-2022 17:16:33 : Starting C:/Program Files/Unity/Hub/Editor/2020.3.19f1/Editor/Data/Tools/ScriptUpdater/APIUpdater.NonObsoleteApiUpdaterDetector.exe
[api-updater (non-obsolete-error-filter)] 
----------------------------------
jit/startup time      : 48,0442ms
moved types parse time: 38ms
candidates parse time : 1ms
C# parse time         : 136ms
candidates check time : 31ms
console write time    : 0ms

[api-updater (non-obsolete-error-filter)] 8-1-2022 17:16:42 : Starting C:/Program Files/Unity/Hub/Editor/2020.3.19f1/Editor/Data/Tools/ScriptUpdater/APIUpdater.NonObsoleteApiUpdaterDetector.exe
[api-updater (non-obsolete-error-filter)] 
----------------------------------
jit/startup time      : 47,0432ms
moved types parse time: 41ms
candidates parse time : 1ms
C# parse time         : 130ms
candidates check time : 30ms
console write time    : 0ms

[api-updater (non-obsolete-error-filter)] 8-1-2022 17:16:49 : Starting C:/Program Files/Unity/Hub/Editor/2020.3.19f1/Editor/Data/Tools/ScriptUpdater/APIUpdater.NonObsoleteApiUpdaterDetector.exe
[api-updater (non-obsolete-error-filter)] 
----------------------------------
jit/startup time      : 48,0436ms
moved types parse time: 38ms
candidates parse time : 1ms
C# parse time         : 131ms
candidates check time : 30ms
console write time    : 0ms

[api-updater (non-obsolete-error-filter)] 8-1-2022 17:17:03 : Starting C:/Program Files/Unity/Hub/Editor/2020.3.19f1/Editor/Data/Tools/ScriptUpdater/APIUpdater.NonObsoleteApiUpdaterDetector.exe
[api-updater (non-obsolete-error-filter)] 
----------------------------------
jit/startup time      : 49,5543ms
moved types parse time: 42ms
candidates parse time : 1ms
C# parse time         : 132ms
candidates check time : 30ms
console write time    : 0ms

[api-updater (non-obsolete-error-filter)] 8-1-2022 17:17:08 : Starting C:/Program Files/Unity/Hub/Editor/2020.3.19f1/Editor/Data/Tools/ScriptUpdater/APIUpdater.NonObsoleteApiUpdaterDetector.exe
[api-updater (non-obsolete-error-filter)] 
----------------------------------
jit/startup time      : 48,0427ms
moved types parse time: 39ms
candidates parse time : 1ms
C# parse time         : 148ms
candidates check time : 31ms
console write time    : 0ms

[api-updater (non-obsolete-error-filter)] 8-1-2022 17:17:16 : Starting C:/Program Files/Unity/Hub/Editor/2020.3.19f1/Editor/Data/Tools/ScriptUpdater/APIUpdater.NonObsoleteApiUpdaterDetector.exe
[api-updater (non-obsolete-error-filter)] 
----------------------------------
jit/startup time      : 50,0457ms
moved types parse time: 39ms
candidates parse time : 1ms
C# parse time         : 137ms
candidates check time : 32ms
console write time    : 0ms

[api-updater (non-obsolete-error-filter)] 8-1-2022 17:17:23 : Starting C:/Program Files/Unity/Hub/Editor/2020.3.19f1/Editor/Data/Tools/ScriptUpdater/APIUpdater.NonObsoleteApiUpdaterDetector.exe
[api-updater (non-obsolete-error-filter)] 
----------------------------------
jit/startup time      : 48,0446ms
moved types parse time: 39ms
candidates parse time : 1ms
C# parse time         : 130ms
candidates check time : 30ms
console write time    : 0ms

[api-updater (non-obsolete-error-filter)] 8-1-2022 17:17:30 : Starting C:/Program Files/Unity/Hub/Editor/2020.3.19f1/Editor/Data/Tools/ScriptUpdater/APIUpdater.NonObsoleteApiUpdaterDetector.exe
[api-updater (non-obsolete-error-filter)] 
----------------------------------
jit/startup time      : 48,0437ms
moved types parse time: 39ms
candidates parse time : 1ms
C# parse time         : 134ms
candidates check time : 23ms
console write time    : 0ms

[api-updater (non-obsolete-error-filter)] 8-1-2022 17:17:40 : Starting C:/Program Files/Unity/Hub/Editor/2020.3.19f1/Editor/Data/Tools/ScriptUpdater/APIUpdater.NonObsoleteApiUpdaterDetector.exe
[api-updater (non-obsolete-error-filter)] 
----------------------------------
jit/startup time      : 47,0433ms
moved types parse time: 39ms
candidates parse time : 1ms
C# parse time         : 132ms
candidates check time : 22ms
console write time    : 0ms

[api-updater (non-obsolete-error-filter)] 8-1-2022 17:17:45 : Starting C:/Program Files/Unity/Hub/Editor/2020.3.19f1/Editor/Data/Tools/ScriptUpdater/APIUpdater.NonObsoleteApiUpdaterDetector.exe
[api-updater (non-obsolete-error-filter)] 
----------------------------------
jit/startup time      : 48,0437ms
moved types parse time: 39ms
candidates parse time : 1ms
C# parse time         : 141ms
candidates check time : 26ms
console write time    : 0ms

[api-updater (non-obsolete-error-filter)] 8-1-2022 17:17:52 : Starting C:/Program Files/Unity/Hub/Editor/2020.3.19f1/Editor/Data/Tools/ScriptUpdater/APIUpdater.NonObsoleteApiUpdaterDetector.exe
[api-updater (non-obsolete-error-filter)] 
----------------------------------
jit/startup time      : 48,0434ms
moved types parse time: 38ms
candidates parse time : 1ms
C# parse time         : 143ms
candidates check time : 26ms
console write time    : 0ms

[api-updater (non-obsolete-error-filter)] 8-1-2022 17:18:00 : Starting C:/Program Files/Unity/Hub/Editor/2020.3.19f1/Editor/Data/Tools/ScriptUpdater/APIUpdater.NonObsoleteApiUpdaterDetector.exe
[api-updater (non-obsolete-error-filter)] 
----------------------------------
jit/startup time      : 49,0442ms
moved types parse time: 40ms
candidates parse time : 1ms
C# parse time         : 147ms
candidates check time : 26ms
console write time    : 0ms

[api-updater (non-obsolete-error-filter)] 8-1-2022 17:18:10 : Starting C:/Program Files/Unity/Hub/Editor/2020.3.19f1/Editor/Data/Tools/ScriptUpdater/APIUpdater.NonObsoleteApiUpdaterDetector.exe
[api-updater (non-obsolete-error-filter)] 
----------------------------------
jit/startup time      : 48,0437ms
moved types parse time: 38ms
candidates parse time : 1ms
C# parse time         : 136ms
candidates check time : 26ms
console write time    : 0ms

[api-updater (non-obsolete-error-filter)] 8-1-2022 17:18:16 : Starting C:/Program Files/Unity/Hub/Editor/2020.3.19f1/Editor/Data/Tools/ScriptUpdater/APIUpdater.NonObsoleteApiUpdaterDetector.exe
[api-updater (non-obsolete-error-filter)] 
----------------------------------
jit/startup time      : 47,0428ms
moved types parse time: 39ms
candidates parse time : 1ms
C# parse time         : 139ms
candidates check time : 26ms
console write time    : 0ms

[api-updater (non-obsolete-error-filter)] 8-1-2022 17:18:45 : Starting C:/Program Files/Unity/Hub/Editor/2020.3.19f1/Editor/Data/Tools/ScriptUpdater/APIUpdater.NonObsoleteApiUpdaterDetector.exe
[api-updater (non-obsolete-error-filter)] 
----------------------------------
jit/startup time      : 50,0453ms
moved types parse time: 39ms
candidates parse time : 1ms
C# parse time         : 134ms
candidates check time : 28ms
console write time    : 0ms

[api-updater (non-obsolete-error-filter)] 8-1-2022 17:19:03 : Starting C:/Program Files/Unity/Hub/Editor/2020.3.19f1/Editor/Data/Tools/ScriptUpdater/APIUpdater.NonObsoleteApiUpdaterDetector.exe
[api-updater (non-obsolete-error-filter)] 
----------------------------------
jit/startup time      : 47,0433ms
moved types parse time: 39ms
candidates parse time : 1ms
C# parse time         : 148ms
candidates check time : 38ms
console write time    : 0ms

[api-updater (non-obsolete-error-filter)] 8-1-2022 17:19:12 : Starting C:/Program Files/Unity/Hub/Editor/2020.3.19f1/Editor/Data/Tools/ScriptUpdater/APIUpdater.NonObsoleteApiUpdaterDetector.exe
[api-updater (non-obsolete-error-filter)] 
----------------------------------
jit/startup time      : 48,0433ms
moved types parse time: 40ms
candidates parse time : 1ms
C# parse time         : 143ms
candidates check time : 38ms
console write time    : 0ms

[api-updater (non-obsolete-error-filter)] 8-1-2022 17:19:29 : Starting C:/Program Files/Unity/Hub/Editor/2020.3.19f1/Editor/Data/Tools/ScriptUpdater/APIUpdater.NonObsoleteApiUpdaterDetector.exe
[api-updater (non-obsolete-error-filter)] 
----------------------------------
jit/startup time      : 47,407ms
moved types parse time: 39ms
candidates parse time : 1ms
C# parse time         : 145ms
candidates check time : 38ms
console write time    : 0ms

[api-updater (non-obsolete-error-filter)] 8-1-2022 17:19:44 : Starting C:/Program Files/Unity/Hub/Editor/2020.3.19f1/Editor/Data/Tools/ScriptUpdater/APIUpdater.NonObsoleteApiUpdaterDetector.exe
[api-updater (non-obsolete-error-filter)] 
----------------------------------
jit/startup time      : 48,0419ms
moved types parse time: 39ms
candidates parse time : 1ms
C# parse time         : 143ms
candidates check time : 37ms
console write time    : 0ms

[api-updater (non-obsolete-error-filter)] 8-1-2022 17:19:59 : Starting C:/Program Files/Unity/Hub/Editor/2020.3.19f1/Editor/Data/Tools/ScriptUpdater/APIUpdater.NonObsoleteApiUpdaterDetector.exe
[api-updater (non-obsolete-error-filter)] 
----------------------------------
jit/startup time      : 47,043ms
moved types parse time: 39ms
candidates parse time : 1ms
C# parse time         : 135ms
candidates check time : 34ms
console write time    : 0ms

[api-updater (non-obsolete-error-filter)] 8-1-2022 17:20:08 : Starting C:/Program Files/Unity/Hub/Editor/2020.3.19f1/Editor/Data/Tools/ScriptUpdater/APIUpdater.NonObsoleteApiUpdaterDetector.exe
[api-updater (non-obsolete-error-filter)] 
----------------------------------
jit/startup time      : 46,9774ms
moved types parse time: 39ms
candidates parse time : 1ms
C# parse time         : 140ms
candidates check time : 34ms
console write time    : 0ms

[api-updater (non-obsolete-error-filter)] 8-1-2022 17:20:17 : Starting C:/Program Files/Unity/Hub/Editor/2020.3.19f1/Editor/Data/Tools/ScriptUpdater/APIUpdater.NonObsoleteApiUpdaterDetector.exe
[api-updater (non-obsolete-error-filter)] 
----------------------------------
jit/startup time      : 48,0438ms
moved types parse time: 38ms
candidates parse time : 1ms
C# parse time         : 140ms
candidates check time : 27ms
console write time    : 0ms

[api-updater (non-obsolete-error-filter)] 8-1-2022 17:20:30 : Starting C:/Program Files/Unity/Hub/Editor/2020.3.19f1/Editor/Data/Tools/ScriptUpdater/APIUpdater.NonObsoleteApiUpdaterDetector.exe
[api-updater (non-obsolete-error-filter)] 
----------------------------------
jit/startup time      : 49,0446ms
moved types parse time: 41ms
candidates parse time : 1ms
C# parse time         : 149ms
candidates check time : 36ms
console write time    : 0ms

[api-updater (non-obsolete-error-filter)] 8-1-2022 17:20:44 : Starting C:/Program Files/Unity/Hub/Editor/2020.3.19f1/Editor/Data/Tools/ScriptUpdater/APIUpdater.NonObsoleteApiUpdaterDetector.exe
[api-updater (non-obsolete-error-filter)] 
----------------------------------
jit/startup time      : 48,0435ms
moved types parse time: 40ms
candidates parse time : 1ms
C# parse time         : 141ms
candidates check time : 37ms
console write time    : 0ms

[api-updater (non-obsolete-error-filter)] 8-1-2022 17:25:51 : Starting C:/Program Files/Unity/Hub/Editor/2020.3.19f1/Editor/Data/Tools/ScriptUpdater/APIUpdater.NonObsoleteApiUpdaterDetector.exe
[api-updater (non-obsolete-error-filter)] 
----------------------------------
jit/startup time      : 49,0444ms
moved types parse time: 38ms
candidates parse time : 1ms
C# parse time         : 152ms
candidates check time : 30ms
console write time    : 0ms

[api-updater (non-obsolete-error-filter)] 8-1-2022 17:26:15 : Starting C:/Program Files/Unity/Hub/Editor/2020.3.19f1/Editor/Data/Tools/ScriptUpdater/APIUpdater.NonObsoleteApiUpdaterDetector.exe
[api-updater (non-obsolete-error-filter)] 
----------------------------------
jit/startup time      : 48,0439ms
moved types parse time: 40ms
candidates parse time : 1ms
C# parse time         : 155ms
candidates check time : 32ms
console write time    : 0ms

[api-updater (non-obsolete-error-filter)] 8-1-2022 17:26:50 : Starting C:/Program Files/Unity/Hub/Editor/2020.3.19f1/Editor/Data/Tools/ScriptUpdater/APIUpdater.NonObsoleteApiUpdaterDetector.exe
[api-updater (non-obsolete-error-filter)] 
----------------------------------
jit/startup time      : 48,0437ms
moved types parse time: 41ms
candidates parse time : 1ms
C# parse time         : 150ms
candidates check time : 31ms
console write time    : 0ms

[api-updater (non-obsolete-error-filter)] 8-1-2022 17:26:54 : Starting C:/Program Files/Unity/Hub/Editor/2020.3.19f1/Editor/Data/Tools/ScriptUpdater/APIUpdater.NonObsoleteApiUpdaterDetector.exe
[api-updater (non-obsolete-error-filter)] 
----------------------------------
jit/startup time      : 47,0428ms
moved types parse time: 39ms
candidates parse time : 1ms
C# parse time         : 149ms
candidates check time : 29ms
console write time    : 0ms

[api-updater (non-obsolete-error-filter)] 8-1-2022 17:32:24 : Starting C:/Program Files/Unity/Hub/Editor/2020.3.19f1/Editor/Data/Tools/ScriptUpdater/APIUpdater.NonObsoleteApiUpdaterDetector.exe
[api-updater (non-obsolete-error-filter)] 
----------------------------------
jit/startup time      : 50,046ms
moved types parse time: 39ms
candidates parse time : 1ms
C# parse time         : 148ms
candidates check time : 30ms
console write time    : 0ms

[api-updater (non-obsolete-error-filter)] 8-1-2022 17:40:35 : Starting C:/Program Files/Unity/Hub/Editor/2020.3.19f1/Editor/Data/Tools/ScriptUpdater/APIUpdater.NonObsoleteApiUpdaterDetector.exe
[api-updater (non-obsolete-error-filter)] 
----------------------------------
jit/startup time      : 51,0465ms
moved types parse time: 41ms
candidates parse time : 1ms
C# parse time         : 153ms
candidates check time : 33ms
console write time    : 0ms

