{
    "name": "Tests1",
    "rootNamespace": "",
    "references": [
        "GUID:27619889b8ba8c24980f49ee34dbb44a",
        "GUID:0acc523941302664db1f4e527237feb3",
        "GUID:8dff84981a44ac647b37af9ff8c352ca",
        "GUID:a5c09a1d29ba43f40ba85296eb534f2b"
    ],
    "includePlatforms": [],
    "excludePlatforms": [],
    "allowUnsafeCode": false,
    "overrideReferences": true,
    "precompiledReferences": [
        "nunit.framework.dll"
    ],
    "autoReferenced": false,
    "defineConstraints": [
        "UNITY_INCLUDE_TESTS"
    ],
    "versionDefines": [],
    "noEngineReferences": false
}